module gitlab.com/birowo/partial-content

go 1.20

require github.com/valyala/fasthttp v1.45.0

require (
	github.com/andybalholm/brotli v1.0.5 // indirect
	github.com/klauspost/compress v1.16.3 // indirect
	github.com/valyala/bytebufferpool v1.0.0 // indirect
)
